[gd_resource type="StyleBoxFlat" format=2]

[resource]
bg_color = Color( 1, 1, 1, 0 )
border_width_left = 2
border_width_top = 2
border_width_right = 2
border_width_bottom = 2
border_color = Color( 0.501961, 0.501961, 0.501961, 1 )
corner_radius_top_left = 8
corner_radius_top_right = 8
corner_radius_bottom_right = 8
corner_radius_bottom_left = 8
